Hotel: Classifying with Children or not
…
rf_best <- 
  rf_res %>% 
  select_best(metric = "roc_auc")
rf_best

# A tibble: 1 × 3
   mtry min_n .config              
  <int> <int> <chr>                
1     9     3 Preprocessor1_Model09

rf_res %>% 
  collect_predictions()

# A tibble: 187,500 × 8
   .pred_children .pred_none id          .row  mtry min_n children .config      
            <dbl>      <dbl> <chr>      <int> <int> <int> <fct>    <chr>        
 1         0.0660      0.934 validation    13     1    24 none     Preprocessor…
 2         0.0520      0.948 validation    20     1    24 none     Preprocessor…
 3         0.0698      0.930 validation    22     1    24 children Preprocessor…
 4         0.0555      0.945 validation    23     1    24 none     Preprocessor…
 5         0.0667      0.933 validation    31     1    24 none     Preprocessor…
 6         0.0443      0.956 validation    38     1    24 none     Preprocessor…
 7         0.0354      0.965 validation    39     1    24 none     Preprocessor…
 8         0.0481      0.952 validation    50     1    24 none     Preprocessor…
 9         0.0608      0.939 validation    54     1    24 none     Preprocessor…
10         0.0729      0.927 validation    57     1    24 children Preprocessor…
# ℹ 187,490 more rows
…
